{
    "processes": {
        "Rounds": {
            "enabled": false,
            "processName": "Rounds",
            "outputPath": "root.csgo.Rounds",
            "settings": {
                "test": "re"
            },
            "roit": {
                "library": {
                    "name": "ROIT",
                    "version": "0.0.1"
                },
                "settings": {
                    "fps": 0.5
                },
                "position": {
                    "x": 813,
                    "y": 19,
                    "width": 70,
                    "height": 68
                }
            },
            "bitmapProcesses": {
                "b1": {
                    "enabled": true,
                    "library": {
                        "name": "OMHTextIsolator",
                        "version": "0.0.1"
                    },
                    "settings": {
                        "tHigh": 255,
                        "tLow": 0
                    }
                }
            },
            "readerProcess": {
                "library": {
                    "name": "BasicReader",
                    "version": "0.0.1"
                },
                "settings": {
                    "readMode": 14
                }
            }
        }
    }
}